<?xml version="1.0" encoding="UTF-8" standalone="no"?><svg xmlns="http://www.w3.org/2000/svg" xmlns:xlink="http://www.w3.org/1999/xlink" contentScriptType="application/ecmascript" contentStyleType="text/css" height="446.4px" preserveAspectRatio="none" style="width:944px;height:446px;background:#FFFFFF;" version="1.1" viewBox="0 0 944 446" width="944.8px" zoomAndPan="magnify"><defs><filter height="300%" id="f16cyzyepwfb3u" width="300%" x="-1" y="-1"><feGaussianBlur result="blurOut" stdDeviation="1.6000000000000003"/><feColorMatrix in="blurOut" result="blurOut2" type="matrix" values="0 0 0 0 0 0 0 0 0 0 0 0 0 0 0 0 0 0 .4 0"/><feOffset dx="3.2000000000000006" dy="3.2000000000000006" in="blurOut2" result="blurOut3"/><feBlend in="SourceGraphic" in2="blurOut3" mode="normal"/></filter></defs><g><rect fill="#FFFFFF" filter="url(#f16cyzyepwfb3u)" height="291.6125" style="stroke:#A80036;stroke-width:0.8000000000000002;" width="8" x="35.6" y="79.6875"/><rect fill="#FFFFFF" filter="url(#f16cyzyepwfb3u)" height="266.5313" style="stroke:#A80036;stroke-width:0.8000000000000002;" width="8" x="322.8" y="97.5688"/><rect fill="#FFFFFF" filter="url(#f16cyzyepwfb3u)" height="96.8438" style="stroke:#A80036;stroke-width:0.8000000000000002;" width="8" x="481.2" y="121.85"/><rect fill="#FFFFFF" filter="url(#f16cyzyepwfb3u)" height="72.5625" style="stroke:#A80036;stroke-width:0.8000000000000002;" width="8" x="481.2" y="267.2563"/><rect fill="#FFFFFF" filter="url(#f16cyzyepwfb3u)" height="24" style="stroke:#A80036;stroke-width:0.8000000000000002;" width="8" x="674" y="146.1313"/><rect fill="#FFFFFF" filter="url(#f16cyzyepwfb3u)" height="72.8438" style="stroke:#A80036;stroke-width:0.8000000000000002;" width="8" x="844.4" y="194.4125"/><rect fill="#FFFFFF" filter="url(#f16cyzyepwfb3u)" height="24" style="stroke:#A80036;stroke-width:0.8000000000000002;" width="8" x="844.4" y="315.8188"/><line style="stroke:#A80036;stroke-width:0.8000000000000002;stroke-dasharray:5.0,5.0;" x1="39.2" x2="39.2" y1="71.6875" y2="378.5"/><line style="stroke:#A80036;stroke-width:0.8000000000000002;stroke-dasharray:5.0,5.0;" x1="326.4" x2="326.4" y1="71.6875" y2="378.5"/><line style="stroke:#A80036;stroke-width:0.8000000000000002;stroke-dasharray:5.0,5.0;" x1="484.8" x2="484.8" y1="71.6875" y2="378.5"/><line style="stroke:#A80036;stroke-width:0.8000000000000002;stroke-dasharray:5.0,5.0;" x1="678" x2="678" y1="71.6875" y2="378.5"/><line style="stroke:#A80036;stroke-width:0.8000000000000002;stroke-dasharray:5.0,5.0;" x1="848" x2="848" y1="71.6875" y2="378.5"/><text fill="#000000" font-family="sans-serif" font-size="11.2" lengthAdjust="spacing" textLength="66.4" x="4" y="69.2266">Administrator</text><ellipse cx="39.6" cy="12" fill="#FEFECE" filter="url(#f16cyzyepwfb3u)" rx="6.4" ry="6.4" style="stroke:#A80036;stroke-width:1.6000000000000003;"/><path d="M39.6,18.4 L39.6,40 M29.2,24.8 L50,24.8 M39.6,40 L29.2,52 M39.6,40 L50,52 " fill="none" filter="url(#f16cyzyepwfb3u)" style="stroke:#A80036;stroke-width:1.6000000000000003;"/><text fill="#000000" font-family="sans-serif" font-size="11.2" lengthAdjust="spacing" textLength="66.4" x="4" y="389.3266">Administrator</text><ellipse cx="39.6" cy="399.7875" fill="#FEFECE" filter="url(#f16cyzyepwfb3u)" rx="6.4" ry="6.4" style="stroke:#A80036;stroke-width:1.6000000000000003;"/><path d="M39.6,406.1875 L39.6,427.7875 M29.2,412.5875 L50,412.5875 M39.6,427.7875 L29.2,439.7875 M39.6,427.7875 L50,439.7875 " fill="none" filter="url(#f16cyzyepwfb3u)" style="stroke:#A80036;stroke-width:1.6000000000000003;"/><rect fill="#FEFECE" filter="url(#f16cyzyepwfb3u)" height="25.2875" style="stroke:#A80036;stroke-width:1.2000000000000002;" width="127.2" x="261.6" y="42.4"/><text fill="#000000" font-family="sans-serif" font-size="11.2" lengthAdjust="spacing" textLength="116" x="267.2" y="59.6266">:GetListOfEmployeesUI</text><rect fill="#FEFECE" filter="url(#f16cyzyepwfb3u)" height="25.2875" style="stroke:#A80036;stroke-width:1.2000000000000002;" width="127.2" x="261.6" y="377.7"/><text fill="#000000" font-family="sans-serif" font-size="11.2" lengthAdjust="spacing" textLength="116" x="267.2" y="394.9266">:GetListOfEmployeesUI</text><rect fill="#FEFECE" filter="url(#f16cyzyepwfb3u)" height="25.2875" style="stroke:#A80036;stroke-width:1.2000000000000002;" width="167.2" x="400" y="42.4"/><text fill="#000000" font-family="sans-serif" font-size="11.2" lengthAdjust="spacing" textLength="156" x="405.6" y="59.6266">:GetListOfEmployeesController</text><rect fill="#FEFECE" filter="url(#f16cyzyepwfb3u)" height="25.2875" style="stroke:#A80036;stroke-width:1.2000000000000002;" width="167.2" x="400" y="377.7"/><text fill="#000000" font-family="sans-serif" font-size="11.2" lengthAdjust="spacing" textLength="156" x="405.6" y="394.9266">:GetListOfEmployeesController</text><rect fill="#FEFECE" filter="url(#f16cyzyepwfb3u)" height="25.2875" style="stroke:#A80036;stroke-width:1.2000000000000002;" width="62.4" x="645.2" y="42.4"/><text fill="#000000" font-family="sans-serif" font-size="11.2" lengthAdjust="spacing" textLength="51.2" x="650.8" y="59.6266">:Company</text><rect fill="#FEFECE" filter="url(#f16cyzyepwfb3u)" height="25.2875" style="stroke:#A80036;stroke-width:1.2000000000000002;" width="62.4" x="645.2" y="377.7"/><text fill="#000000" font-family="sans-serif" font-size="11.2" lengthAdjust="spacing" textLength="51.2" x="650.8" y="394.9266">:Company</text><rect fill="#FEFECE" filter="url(#f16cyzyepwfb3u)" height="25.2875" style="stroke:#A80036;stroke-width:1.2000000000000002;" width="173.6" x="760" y="42.4"/><text fill="#000000" font-family="sans-serif" font-size="11.2" lengthAdjust="spacing" textLength="162.4" x="765.6" y="59.6266">store: GetListOfEmployeesStore</text><rect fill="#FEFECE" filter="url(#f16cyzyepwfb3u)" height="25.2875" style="stroke:#A80036;stroke-width:1.2000000000000002;" width="173.6" x="760" y="377.7"/><text fill="#000000" font-family="sans-serif" font-size="11.2" lengthAdjust="spacing" textLength="162.4" x="765.6" y="394.9266">store: GetListOfEmployeesStore</text><rect fill="#FFFFFF" filter="url(#f16cyzyepwfb3u)" height="291.6125" style="stroke:#A80036;stroke-width:0.8000000000000002;" width="8" x="35.6" y="79.6875"/><rect fill="#FFFFFF" filter="url(#f16cyzyepwfb3u)" height="266.5313" style="stroke:#A80036;stroke-width:0.8000000000000002;" width="8" x="322.8" y="97.5688"/><rect fill="#FFFFFF" filter="url(#f16cyzyepwfb3u)" height="96.8438" style="stroke:#A80036;stroke-width:0.8000000000000002;" width="8" x="481.2" y="121.85"/><rect fill="#FFFFFF" filter="url(#f16cyzyepwfb3u)" height="72.5625" style="stroke:#A80036;stroke-width:0.8000000000000002;" width="8" x="481.2" y="267.2563"/><rect fill="#FFFFFF" filter="url(#f16cyzyepwfb3u)" height="24" style="stroke:#A80036;stroke-width:0.8000000000000002;" width="8" x="674" y="146.1313"/><rect fill="#FFFFFF" filter="url(#f16cyzyepwfb3u)" height="72.8438" style="stroke:#A80036;stroke-width:0.8000000000000002;" width="8" x="844.4" y="194.4125"/><rect fill="#FFFFFF" filter="url(#f16cyzyepwfb3u)" height="24" style="stroke:#A80036;stroke-width:0.8000000000000002;" width="8" x="844.4" y="315.8188"/><polygon fill="#A80036" points="313.2,94.3688,321.2,97.5688,313.2,100.7688,316.4,97.5688" style="stroke:#A80036;stroke-width:0.8000000000000002;"/><line style="stroke:#A80036;stroke-width:0.8000000000000002;" x1="43.6" x2="318" y1="97.5688" y2="97.5688"/><text fill="#000000" font-family="sans-serif" font-size="10.4" font-weight="bold" lengthAdjust="spacing" textLength="5.6" x="49.2" y="93.6836">1</text><text fill="#000000" font-family="sans-serif" font-size="10.4" lengthAdjust="spacing" textLength="232" x="58" y="93.6836">Asks for the list of employees given a function/role</text><polygon fill="#A80036" points="471.6,118.65,479.6,121.85,471.6,125.05,474.8,121.85" style="stroke:#A80036;stroke-width:0.8000000000000002;"/><line style="stroke:#A80036;stroke-width:0.8000000000000002;" x1="330.8" x2="476.4" y1="121.85" y2="121.85"/><text fill="#000000" font-family="sans-serif" font-size="10.4" font-weight="bold" lengthAdjust="spacing" textLength="5.6" x="336.4" y="117.9648">2</text><text fill="#000000" font-family="sans-serif" font-size="10.4" lengthAdjust="spacing" textLength="86.4" x="345.2" y="117.9648">presentFunctions()</text><polygon fill="#A80036" points="664.4,142.9313,672.4,146.1313,664.4,149.3313,667.6,146.1313" style="stroke:#A80036;stroke-width:0.8000000000000002;"/><line style="stroke:#A80036;stroke-width:0.8000000000000002;" x1="489.2" x2="669.2" y1="146.1313" y2="146.1313"/><text fill="#000000" font-family="sans-serif" font-size="10.4" font-weight="bold" lengthAdjust="spacing" textLength="5.6" x="494.8" y="142.2461">3</text><text fill="#000000" font-family="sans-serif" font-size="10.4" lengthAdjust="spacing" textLength="160.8" x="503.6" y="142.2461">store = getListOfEmployeesStore()</text><polygon fill="#A80036" points="834.8,191.2125,842.8,194.4125,834.8,197.6125,838,194.4125" style="stroke:#A80036;stroke-width:0.8000000000000002;"/><line style="stroke:#A80036;stroke-width:0.8000000000000002;" x1="489.2" x2="839.6" y1="194.4125" y2="194.4125"/><text fill="#000000" font-family="sans-serif" font-size="10.4" font-weight="bold" lengthAdjust="spacing" textLength="5.6" x="494.8" y="190.5273">4</text><text fill="#000000" font-family="sans-serif" font-size="10.4" lengthAdjust="spacing" textLength="86.4" x="503.6" y="190.5273">presentFunctions()</text><polygon fill="#A80036" points="52.4,215.4938,44.4,218.6938,52.4,221.8938,49.2,218.6938" style="stroke:#A80036;stroke-width:0.8000000000000002;"/><line style="stroke:#A80036;stroke-width:0.8000000000000002;stroke-dasharray:2.0,2.0;" x1="47.6" x2="322" y1="218.6938" y2="218.6938"/><text fill="#000000" font-family="sans-serif" font-size="10.4" font-weight="bold" lengthAdjust="spacing" textLength="5.6" x="57.2" y="214.8086">5</text><text fill="#000000" font-family="sans-serif" font-size="10.4" lengthAdjust="spacing" textLength="155.2" x="66" y="214.8086">presents the functions to the user</text><polygon fill="#A80036" points="313.2,239.775,321.2,242.975,313.2,246.175,316.4,242.975" style="stroke:#A80036;stroke-width:0.8000000000000002;"/><line style="stroke:#A80036;stroke-width:0.8000000000000002;" x1="43.6" x2="318" y1="242.975" y2="242.975"/><text fill="#000000" font-family="sans-serif" font-size="10.4" font-weight="bold" lengthAdjust="spacing" textLength="5.6" x="49.2" y="239.0898">6</text><text fill="#000000" font-family="sans-serif" font-size="10.4" lengthAdjust="spacing" textLength="219.2" x="58" y="239.0898">selects a function from the menu given in the UI</text><polygon fill="#A80036" points="838.8,264.0563,846.8,267.2563,838.8,270.4563,842,267.2563" style="stroke:#A80036;stroke-width:0.8000000000000002;"/><line style="stroke:#A80036;stroke-width:0.8000000000000002;" x1="330.8" x2="843.6" y1="267.2563" y2="267.2563"/><text fill="#000000" font-family="sans-serif" font-size="10.4" font-weight="bold" lengthAdjust="spacing" textLength="5.6" x="336.4" y="263.3711">7</text><text fill="#000000" font-family="sans-serif" font-size="10.4" lengthAdjust="spacing" textLength="188.8" x="345.2" y="263.3711">getListOfEmployeesByFunction(function)</text><polygon fill="#A80036" points="668.4,288.3375,676.4,291.5375,668.4,294.7375,671.6,291.5375" style="stroke:#A80036;stroke-width:0.8000000000000002;"/><line style="stroke:#A80036;stroke-width:0.8000000000000002;" x1="489.2" x2="673.2" y1="291.5375" y2="291.5375"/><text fill="#000000" font-family="sans-serif" font-size="10.4" font-weight="bold" lengthAdjust="spacing" textLength="5.6" x="494.8" y="287.6523">8</text><text fill="#000000" font-family="sans-serif" font-size="10.4" lengthAdjust="spacing" textLength="160.8" x="503.6" y="287.6523">store = getListOfEmployeesStore()</text><polygon fill="#A80036" points="834.8,312.6188,842.8,315.8188,834.8,319.0188,838,315.8188" style="stroke:#A80036;stroke-width:0.8000000000000002;"/><line style="stroke:#A80036;stroke-width:0.8000000000000002;" x1="489.2" x2="839.6" y1="315.8188" y2="315.8188"/><text fill="#000000" font-family="sans-serif" font-size="10.4" font-weight="bold" lengthAdjust="spacing" textLength="5.6" x="494.8" y="311.9336">9</text><text fill="#000000" font-family="sans-serif" font-size="10.4" lengthAdjust="spacing" textLength="331.2" x="503.6" y="311.9336">listOfEmployeeByFunction() = getListOfEmployeesByFunction(function)</text><polygon fill="#A80036" points="52.4,360.9,44.4,364.1,52.4,367.3,49.2,364.1" style="stroke:#A80036;stroke-width:0.8000000000000002;"/><line style="stroke:#A80036;stroke-width:0.8000000000000002;stroke-dasharray:2.0,2.0;" x1="47.6" x2="326" y1="364.1" y2="364.1"/><text fill="#000000" font-family="sans-serif" font-size="10.4" font-weight="bold" lengthAdjust="spacing" textLength="11.2" x="57.2" y="360.2148">10</text><text fill="#000000" font-family="sans-serif" font-size="10.4" lengthAdjust="spacing" textLength="245.6" x="71.6" y="360.2148">Shows the list of the employees by the given function</text><!--MD5=[7fff2c5b3294d67f26543cd9986524f3]
@startuml
autonumber
'hide footbox
actor "Administrator" as admin

participant ":GetListOfEmployeesUI" as UI
participant ":GetListOfEmployeesController" as CTRL
participant ":Company" as CMP
participant "store: GetListOfEmployeesStore" as store

activate admin
admin -> UI : Asks for the list of employees given a function/role
activate UI

UI -> CTRL : presentFunctions()
activate CTRL

CTRL -> CMP : store = getListOfEmployeesStore()
activate CMP
deactivate CMP

CTRL -> store : presentFunctions()
activate store


UI - -> admin : presents the functions to the user
deactivate CTRL
admin -> UI: selects a function from the menu given in the UI

UI -> store: getListOfEmployeesByFunction(function)
deactivate store

activate CTRL
CTRL -> CMP : store = getListOfEmployeesStore()

CTRL -> store : listOfEmployeeByFunction() = getListOfEmployeesByFunction(function)
activate store

deactivate CTRL
deactivate store

UI - -> admin : Shows the list of the employees by the given function
deactivate UI

@enduml

@startuml
autonumber
actor "Administrator" as admin

participant ":GetListOfEmployeesUI" as UI
participant ":GetListOfEmployeesController" as CTRL
participant ":Company" as CMP
participant "store: GetListOfEmployeesStore" as store

activate admin
admin -> UI : Asks for the list of employees given a function/role
activate UI

UI -> CTRL : presentFunctions()
activate CTRL

CTRL -> CMP : store = getListOfEmployeesStore()
activate CMP
deactivate CMP

CTRL -> store : presentFunctions()
activate store


UI - -> admin : presents the functions to the user
deactivate CTRL
admin -> UI: selects a function from the menu given in the UI

UI -> store: getListOfEmployeesByFunction(function)
deactivate store

activate CTRL
CTRL -> CMP : store = getListOfEmployeesStore()

CTRL -> store : listOfEmployeeByFunction() = getListOfEmployeesByFunction(function)
activate store

deactivate CTRL
deactivate store

UI - -> admin : Shows the list of the employees by the given function
deactivate UI

@enduml

PlantUML version 1.2021.11(Sat Oct 02 14:26:11 BST 2021)
(GPL source distribution)
Java Runtime: OpenJDK Runtime Environment
JVM: OpenJDK 64-Bit Server VM
Default Encoding: Cp1252
Language: en
Country: US
--></g></svg>