@startuml
autonumber
'hide footbox
actor "Administrator" as ADM

participant ":RegisterNewEmployeeUI" as UI
participant ":RegisterNewEmployeeController" as CTRL
participant ":Company" as COMP
participant ":EmployeeStorage" as STR
participant ":Employee" as EMP

activate ADM
ADM -> UI : asks to record a new enloyee
activate UI
UI --> ADM : requests data (id, name, address,phoneNumber, e-mail,citizenCardNumber, roleId)
deactivate UI

ADM -> UI : types requested data

activate UI

UI -> CTRL : createEmployee(id, name, address,phoneNumber, e-mail,citizenCardNumber, roleId)
activate CTRL
CTRL ->COMP : store= getEmployee()
activate COMP
deactivate COMP

CTRL -> STR : en=createEmployee(id, name, address,phoneNumber, e-mail,citizenCardNumber, roleId)
activate STR

STR-> EMP** : create(id, name, address,phoneNumber, e-mail,citizenCardNumber, roleId)


deactivate STR
CTRL -> STR: validateEmployee(en)
activate STR
|||
deactivate STR

CTRL --> UI: result
UI --> ADM: shows all data and requests confirmation
deactivate COMP
deactivate CTRL
deactivate UI
|||
ADM -> UI : confirms the data
activate UI
activate CTRL
UI -> CTRL : saveEmployee()

CTRL -> STR : saveEmployee(en)
activate STR

STR -> STR: validateEmployee(en)
activate STR
deactivate STR
STR -> STR: addEmployee(en)
activate STR
deactivate STR
CTRL --> UI: result
deactivate STR
UI --> ADM : informs operation success
deactivate STR

deactivate UI

deactivate ADM

@enduml