@startuml
autonumber
actor CenterCoordinator as CC

participant NumberFullyVaccinatedUI as UI
participant NumberFullyVaccinatedController as CTRL
participant ValidateDates as VD
participant ConvertToFile as CF
participant NumberFullyVaccinatedStore as NFVS
participant "Number Fully Vaccinated List \n :NumberFullyVaccinatedList" as LIST
participant ":File \n NumberFullyVaccinatedFile" as File

activate CC
CC ->UI: Asks for the number of users fully vaccinated
activate UI
UI->CC:Request a time interval of two dates.
deactivate UI
Loop
CC->UI:Types requested data
activate UI
UI->CTRL: ValidateInterval(firstDay,lastDay)
activate CTRL
CTRL->VD: ValidateInterval(firstDay,lastDay)
activate VD
VD->VD: ValidateDates(firstDay,lastDay)
activate VD
deactivate VD
VD->VD: ValidateInterval(firstDay,lastDay)
activate VD
End
deactivate VD

UI-->CC: Request confirmation
deactivate VD
deactivate CTRL
deactivate UI
CC->UI:Confirms the interval
activate UI
UI->CTRL: ConvertNumberOfFullyVaccinatedToFile(firstDay,lastDay)
activate CTRL
CTRL->CF: ConvertNumberOfFullyVaccinatedToFile(firstDay,lastDay)
activate CF
CF->CF: VerifyIntervalOnSystem(firstDay,lastDay)
activate CF
deactivate CF
CF->File**: BuildFile(firstDay,start,finish)
Loop
CF->NFVS:numberFullyVaccinated=getNumberOfFullyVaccinated()
activate NFVS

NFVS->LIST**:numberFullyVaccinated=getNumberVaccinatedList()
deactivate NFVS
CF->File: saveOnFile(Day,numberFullyVaccinated)
End Loop
UI-->CC:Informs operation success
deactivate CF
deactivate CTRL
deactivate UI

@enduml