<?xml version="1.0" encoding="UTF-8" standalone="no"?><svg xmlns="http://www.w3.org/2000/svg" xmlns:xlink="http://www.w3.org/1999/xlink" contentScriptType="application/ecmascript" contentStyleType="text/css" height="888.21px" preserveAspectRatio="none" style="width:996px;height:888px;background:#FFFFFF;" version="1.1" viewBox="0 0 996 888" width="996.84px" zoomAndPan="magnify"><defs><filter height="300%" id="f1jhbl3y96i07" width="300%" x="-1" y="-1"><feGaussianBlur result="blurOut" stdDeviation="1.42"/><feColorMatrix in="blurOut" result="blurOut2" type="matrix" values="0 0 0 0 0 0 0 0 0 0 0 0 0 0 0 0 0 0 .4 0"/><feOffset dx="2.84" dy="2.84" in="blurOut2" result="blurOut3"/><feBlend in="SourceGraphic" in2="blurOut3" mode="normal"/></filter></defs><g><!--MD5=[6a1fdf58a6ccf033c5989c890f6048c5]
entity n--><ellipse cx="33.725" cy="303.525" fill="#FEFECE" filter="url(#f1jhbl3y96i07)" rx="11.36" ry="11.36" style="stroke:#A80036;stroke-width:1.065;"/><path d="M33.725,317.725 C36.565,317.725 38.695,317.725 41.535,314.885 C47.215,314.885 52.895,320.565 52.895,326.245 L52.895,329.085 C52.895,331.925 50.055,334.765 47.215,334.765 L20.235,334.765 C17.395,334.765 14.555,331.925 14.555,329.085 L14.555,326.245 C14.555,320.565 20.235,314.885 25.915,314.885 C28.755,317.725 30.885,317.725 33.725,317.725 " fill="#FEFECE" filter="url(#f1jhbl3y96i07)" style="stroke:#A80036;stroke-width:1.065;"/><text fill="#000000" font-family="sans-serif" font-size="9.94" lengthAdjust="spacing" textLength="26.27" x="20.59" y="346.1486">Nurse</text><!--MD5=[79a439086b036a57b90a01d7b2f8bbd1]
entity admin--><ellipse cx="33.725" cy="661.365" fill="#FEFECE" filter="url(#f1jhbl3y96i07)" rx="11.36" ry="11.36" style="stroke:#A80036;stroke-width:1.065;"/><path d="M33.725,675.565 C36.565,675.565 38.695,675.565 41.535,672.725 C47.215,672.725 52.895,678.405 52.895,684.085 L52.895,686.925 C52.895,689.765 50.055,692.605 47.215,692.605 L20.235,692.605 C17.395,692.605 14.555,689.765 14.555,686.925 L14.555,684.085 C14.555,678.405 20.235,672.725 25.915,672.725 C28.755,675.565 30.885,675.565 33.725,675.565 " fill="#FEFECE" filter="url(#f1jhbl3y96i07)" style="stroke:#A80036;stroke-width:1.065;"/><text fill="#000000" font-family="sans-serif" font-size="9.94" lengthAdjust="spacing" textLength="58.93" x="4.26" y="703.9886">Administrator</text><!--MD5=[c379f63bf4dce4781374740e142de8a3]
entity recep--><ellipse cx="505.52" cy="388.725" fill="#FEFECE" filter="url(#f1jhbl3y96i07)" rx="11.36" ry="11.36" style="stroke:#A80036;stroke-width:1.065;"/><path d="M505.52,402.925 C508.36,402.925 510.49,402.925 513.33,400.085 C519.01,400.085 524.69,405.765 524.69,411.445 L524.69,414.285 C524.69,417.125 521.85,419.965 519.01,419.965 L492.03,419.965 C489.19,419.965 486.35,417.125 486.35,414.285 L486.35,411.445 C486.35,405.765 492.03,400.085 497.71,400.085 C500.55,402.925 502.68,402.925 505.52,402.925 " fill="#FEFECE" filter="url(#f1jhbl3y96i07)" style="stroke:#A80036;stroke-width:1.065;"/><text fill="#000000" font-family="sans-serif" font-size="9.94" lengthAdjust="spacing" textLength="55.38" x="477.83" y="431.3486">Receptionist</text><!--MD5=[704bc45fe0741045fc82ff5c80e9326f]
entity SNSUser--><ellipse cx="505.52" cy="512.265" fill="#FEFECE" filter="url(#f1jhbl3y96i07)" rx="11.36" ry="11.36" style="stroke:#A80036;stroke-width:1.065;"/><path d="M505.52,526.465 C508.36,526.465 510.49,526.465 513.33,523.625 C519.01,523.625 524.69,529.305 524.69,534.985 L524.69,537.825 C524.69,540.665 521.85,543.505 519.01,543.505 L492.03,543.505 C489.19,543.505 486.35,540.665 486.35,537.825 L486.35,534.985 C486.35,529.305 492.03,523.625 497.71,523.625 C500.55,526.465 502.68,526.465 505.52,526.465 " fill="#FEFECE" filter="url(#f1jhbl3y96i07)" style="stroke:#A80036;stroke-width:1.065;"/><text fill="#000000" font-family="sans-serif" font-size="9.94" lengthAdjust="spacing" textLength="42.6" x="484.22" y="554.8886">SNS User</text><!--MD5=[08ac4d90920071717862cf0bc2880feb]
entity Coo--><ellipse cx="505.52" cy="734.495" fill="#FEFECE" filter="url(#f1jhbl3y96i07)" rx="11.36" ry="11.36" style="stroke:#A80036;stroke-width:1.065;"/><path d="M505.52,748.695 C508.36,748.695 510.49,748.695 513.33,745.855 C519.01,745.855 524.69,751.535 524.69,757.215 L524.69,760.055 C524.69,762.895 521.85,765.735 519.01,765.735 L492.03,765.735 C489.19,765.735 486.35,762.895 486.35,760.055 L486.35,757.215 C486.35,751.535 492.03,745.855 497.71,745.855 C500.55,748.695 502.68,748.695 505.52,748.695 " fill="#FEFECE" filter="url(#f1jhbl3y96i07)" style="stroke:#A80036;stroke-width:1.065;"/><text fill="#000000" font-family="sans-serif" font-size="9.94" lengthAdjust="spacing" textLength="53.25" x="478.895" y="777.1186">Coordinator</text><!--MD5=[52244217770951987a130bd5b09c96eb]
entity Time--><ellipse cx="33.725" cy="15.62" fill="#FEFECE" filter="url(#f1jhbl3y96i07)" rx="11.36" ry="11.36" style="stroke:#A80036;stroke-width:1.065;"/><path d="M33.725,29.82 C36.565,29.82 38.695,29.82 41.535,26.98 C47.215,26.98 52.895,32.66 52.895,38.34 L52.895,41.18 C52.895,44.02 50.055,46.86 47.215,46.86 L20.235,46.86 C17.395,46.86 14.555,44.02 14.555,41.18 L14.555,38.34 C14.555,32.66 20.235,26.98 25.915,26.98 C28.755,29.82 30.885,29.82 33.725,29.82 " fill="#FEFECE" filter="url(#f1jhbl3y96i07)" style="stroke:#A80036;stroke-width:1.065;"/><text fill="#000000" font-family="sans-serif" font-size="9.94" lengthAdjust="spacing" textLength="54.67" x="4.97" y="58.2436">«automatic»</text><text fill="#000000" font-family="sans-serif" font-size="9.94" lengthAdjust="spacing" textLength="25.56" x="19.17" y="70.7462">Timer</text><ellipse cx="270.3526" cy="528.4925" fill="#FEFECE" filter="url(#f1jhbl3y96i07)" rx="99.2426" ry="21.5525" style="stroke:#A80036;stroke-width:1.065;"/><text fill="#000000" font-family="sans-serif" font-size="9.94" lengthAdjust="spacing" textLength="175.37" x="182.6676" y="531.1398">UC00 - Application to be operated daily</text><ellipse cx="782.4482" cy="443.9686" fill="#FEFECE" filter="url(#f1jhbl3y96i07)" rx="74.2232" ry="16.5486" style="stroke:#A80036;stroke-width:1.065;"/><text fill="#000000" font-family="sans-serif" font-size="9.94" lengthAdjust="spacing" textLength="121.41" x="721.7432" y="446.6159">UC01 - Schedule a vaccine</text><ellipse cx="270.3844" cy="117.4089" fill="#FEFECE" filter="url(#f1jhbl3y96i07)" rx="122.3494" ry="26.1739" style="stroke:#A80036;stroke-width:1.065;"/><text fill="#000000" font-family="sans-serif" font-size="9.94" lengthAdjust="spacing" textLength="223.65" x="158.5594" y="120.0561">UC07 - Record adverse reactions of an SNS User.</text><ellipse cx="270.6674" cy="195.5655" fill="#FEFECE" filter="url(#f1jhbl3y96i07)" rx="124.4074" ry="26.5855" style="stroke:#A80036;stroke-width:1.065;"/><text fill="#000000" font-family="sans-serif" font-size="9.94" lengthAdjust="spacing" textLength="227.91" x="156.7124" y="198.2127">UC08 - Administration of a vaccine to an SNS User.</text><ellipse cx="270.3677" cy="278.5755" fill="#FEFECE" filter="url(#f1jhbl3y96i07)" rx="147.1827" ry="31.1405" style="stroke:#A80036;stroke-width:1.065;"/><text fill="#000000" font-family="sans-serif" font-size="9.94" lengthAdjust="spacing" textLength="274.77" x="132.9827" y="281.2228">UC10 - Can issue and deliver on site a vaccination certificate.</text><ellipse cx="270.3722" cy="361.0074" fill="#FEFECE" filter="url(#f1jhbl3y96i07)" rx="122.6922" ry="26.2424" style="stroke:#A80036;stroke-width:1.065;"/><text fill="#000000" font-family="sans-serif" font-size="9.94" lengthAdjust="spacing" textLength="224.36" x="158.1922" y="363.6547">UC05 - Checks the user information in the system.</text><ellipse cx="270.3507" cy="446.7711" fill="#FEFECE" filter="url(#f1jhbl3y96i07)" rx="164.5607" ry="34.6161" style="stroke:#A80036;stroke-width:1.065;"/><text fill="#000000" font-family="sans-serif" font-size="9.94" lengthAdjust="spacing" textLength="310.27" x="115.2157" y="449.4184">UC06 - After giving the vaccine to the user, registers the vaccine type</text><ellipse cx="270.4025" cy="603.6915" fill="#FEFECE" filter="url(#f1jhbl3y96i07)" rx="132.6625" ry="28.2365" style="stroke:#A80036;stroke-width:1.065;"/><text fill="#000000" font-family="sans-serif" font-size="9.94" lengthAdjust="spacing" textLength="244.95" x="147.9275" y="606.3387">UC11 - Configuring and managing the core information</text><ellipse cx="270.6101" cy="677.786" fill="#FEFECE" filter="url(#f1jhbl3y96i07)" rx="94.8851" ry="20.681" style="stroke:#A80036;stroke-width:1.065;"/><text fill="#000000" font-family="sans-serif" font-size="9.94" lengthAdjust="spacing" textLength="166.14" x="187.5401" y="680.4333">UC12 - Specify a new type of vaccine</text><ellipse cx="270.4357" cy="753.7211" fill="#FEFECE" filter="url(#f1jhbl3y96i07)" rx="144.4107" ry="30.5861" style="stroke:#A80036;stroke-width:1.065;"/><text fill="#000000" font-family="sans-serif" font-size="9.94" lengthAdjust="spacing" textLength="269.09" x="135.8907" y="756.3684">UC13 - Specify a new vaccine and its administration process</text><ellipse cx="270.4932" cy="828.9926" fill="#FEFECE" filter="url(#f1jhbl3y96i07)" rx="91.2182" ry="19.9476" style="stroke:#A80036;stroke-width:1.065;"/><text fill="#000000" font-family="sans-serif" font-size="9.94" lengthAdjust="spacing" textLength="158.33" x="191.3282" y="831.6399">UC14 - Load Users from a CSV File</text><ellipse cx="782.3199" cy="272.194" fill="#FEFECE" filter="url(#f1jhbl3y96i07)" rx="145.4499" ry="30.794" style="stroke:#A80036;stroke-width:1.065;"/><text fill="#000000" font-family="sans-serif" font-size="9.94" lengthAdjust="spacing" textLength="271.22" x="646.7099" y="274.8412">UC03 - Register the arrival of a SNS user to take the vaccine</text><ellipse cx="782.4056" cy="365.3631" fill="#FEFECE" filter="url(#f1jhbl3y96i07)" rx="176.4206" ry="36.9881" style="stroke:#A80036;stroke-width:1.065;"/><text fill="#000000" font-family="sans-serif" font-size="9.94" lengthAdjust="spacing" textLength="334.41" x="615.2006" y="368.0104">UC04 - Acknowledges the system that the user is ready to take the vaccine</text><ellipse cx="782.339" cy="528.6498" fill="#FEFECE" filter="url(#f1jhbl3y96i07)" rx="206.529" ry="43.0098" style="stroke:#A80036;stroke-width:1.065;"/><text fill="#000000" font-family="sans-serif" font-size="9.94" lengthAdjust="spacing" textLength="395.47" x="584.604" y="531.297">UC02 - Authorize the DGS to send a SMS message with information about the scheduled</text><ellipse cx="782.3079" cy="630.8836" fill="#FEFECE" filter="url(#f1jhbl3y96i07)" rx="162.1229" ry="34.1286" style="stroke:#A80036;stroke-width:1.065;"/><text fill="#000000" font-family="sans-serif" font-size="9.94" lengthAdjust="spacing" textLength="305.3" x="629.6579" y="633.5308">UC09 - Can request the issuance of the EU COVID Digital Certificate</text><ellipse cx="782.5953" cy="714.7211" fill="#FEFECE" filter="url(#f1jhbl3y96i07)" rx="114.4853" ry="24.6011" style="stroke:#A80036;stroke-width:1.065;"/><text fill="#000000" font-family="sans-serif" font-size="9.94" lengthAdjust="spacing" textLength="207.32" x="678.9353" y="717.3683">UC15 - Check and export vaccination statistics</text><ellipse cx="782.4607" cy="787.8951" fill="#FEFECE" filter="url(#f1jhbl3y96i07)" rx="109.3807" ry="23.5801" style="stroke:#A80036;stroke-width:1.065;"/><text fill="#000000" font-family="sans-serif" font-size="9.94" lengthAdjust="spacing" textLength="196.67" x="684.1257" y="790.5424">UC16 - Analyze the performance of a center</text><ellipse cx="782.4529" cy="858.1836" fill="#FEFECE" filter="url(#f1jhbl3y96i07)" rx="102.2729" ry="22.1586" style="stroke:#A80036;stroke-width:1.065;"/><text fill="#000000" font-family="sans-serif" font-size="9.94" lengthAdjust="spacing" textLength="181.76" x="691.5729" y="860.8308">UC17 - Import data from a legacy system</text><ellipse cx="270.3616" cy="38.0973" fill="#FEFECE" filter="url(#f1jhbl3y96i07)" rx="134.0416" ry="28.5123" style="stroke:#A80036;stroke-width:1.065;"/><text fill="#000000" font-family="sans-serif" font-size="9.94" lengthAdjust="spacing" textLength="247.79" x="146.4666" y="40.7446">UC06 - Generate daily report of total vaccinated people</text><!--MD5=[61af862783cf0aaebddc646022ec622e]
link n to Use--><path d="M37.8927,348.894 C44.1691,388.1357 61.2162,457.4317 105.79,494.515 C123.6678,509.3895 146.3807,518.2929 169.1646,523.5114 " fill="none" id="n-to-Use" style="stroke:#A80036;stroke-width:0.71;"/><polygon fill="#A80036" points="172.8211,524.3208,167.1993,520.1622,169.3556,523.5507,165.9672,525.707,172.8211,524.3208" style="stroke:#A80036;stroke-width:0.71;"/><!--MD5=[078bb850d08f6530b6b18d3c871c6c54]
link n to UC07 - Record adverse reactions of an SNS User.--><path d="M38.9932,290.9509 C46.363,254.1161 64.4893,191.0823 105.79,156.555 C120.3805,144.3572 138.1234,135.8372 156.484,129.9158 " fill="none" id="n-to-UC07 - Record adverse reactions of an SNS User." style="stroke:#A80036;stroke-width:0.71;"/><polygon fill="#A80036" points="159.9133,128.8366,152.9657,128.0437,156.5267,129.9012,154.6691,133.4622,159.9133,128.8366" style="stroke:#A80036;stroke-width:0.71;"/><!--MD5=[bde0003c456e51c29a524df9c2cd48fa]
link n to UC08 - Administration of a vaccine to an SNS User.--><path d="M51.8513,291.0219 C64.5532,272.4199 83.4179,249.1958 105.79,235.365 C123.0501,224.7008 142.9656,216.8908 162.8456,211.1824 " fill="none" id="n-to-UC08 - Administration of a vaccine to an SNS User." style="stroke:#A80036;stroke-width:0.71;"/><polygon fill="#A80036" points="166.2962,210.2097,159.3781,209.191,162.8767,211.1635,160.9042,214.6621,166.2962,210.2097" style="stroke:#A80036;stroke-width:0.71;"/><!--MD5=[58a881190240bda07be2d7fc2e806ef2]
link n to UC10 - Can issue and deliver on site a vaccination certificate.--><path d="M54.0949,316.4115 C76.4102,312.5136 114.6934,305.8112 152.863,299.1372 " fill="none" id="n-to-UC10 - Can issue and deliver on site a vaccination certificate." style="stroke:#A80036;stroke-width:0.71;"/><polygon fill="#A80036" points="156.5621,298.4911,149.78,296.788,153.0646,299.0994,150.7532,302.384,156.5621,298.4911" style="stroke:#A80036;stroke-width:0.71;"/><!--MD5=[a78fb27ace4345cd1c6dd95e2656eb4f]
link n to UC05 - Checks the user information in the system.--><path d="M54.0949,323.2985 C80.0525,327.8354 127.587,336.1566 171.4508,343.8246 " fill="none" id="n-to-UC05 - Checks the user information in the system." style="stroke:#A80036;stroke-width:0.71;"/><polygon fill="#A80036" points="175.1357,344.4707,169.3287,340.575,171.6385,343.8607,168.3528,346.1705,175.1357,344.4707" style="stroke:#A80036;stroke-width:0.71;"/><!--MD5=[fbf6f8af89c905a4bb10fc4413537360]
link n to UC06 - After giving the vaccine to the user, registers the vaccine type--><path d="M53.6334,348.681 C66.4986,365.9127 84.8805,386.9429 105.79,400.085 C119.2516,408.5482 134.2823,415.5204 149.6254,421.2572 " fill="none" id="n-to-UC06 - After giving the vaccine to the user, registers the vaccine type" style="stroke:#A80036;stroke-width:0.71;"/><polygon fill="#A80036" points="153.1115,422.5352,148.0815,417.6775,149.7764,421.3188,146.1352,423.0137,153.1115,422.5352" style="stroke:#A80036;stroke-width:0.71;"/><!--MD5=[acdc2633fa15dc3f99e9f568296d18c1]
link admin to Use--><path d="M44.801,648.8335 C55.8131,622.4286 75.7996,584.3868 105.79,563.385 C125.1943,549.7956 148.8444,541.3324 172.0685,536.1068 " fill="none" id="admin-to-Use" style="stroke:#A80036;stroke-width:0.71;"/><polygon fill="#A80036" points="175.796,535.2903,168.946,533.885,172.3284,536.0507,170.1627,539.4332,175.796,535.2903" style="stroke:#A80036;stroke-width:0.71;"/><!--MD5=[d300dca29d009c32e9910916817ffc82]
link admin to UC11 - Configuring and managing the core information--><path d="M63.4456,662.9554 C76.2114,656.8494 91.519,650.0476 105.79,645.035 C127.3527,637.4664 150.9602,630.693 173.382,624.9278 " fill="none" id="admin-to-UC11 - Configuring and managing the core information" style="stroke:#A80036;stroke-width:0.71;"/><polygon fill="#A80036" points="176.9746,624.0119,170.0792,622.8495,173.536,624.8944,171.4911,628.3512,176.9746,624.0119" style="stroke:#A80036;stroke-width:0.71;"/><!--MD5=[f1fc6d108923968543c92e8abda1a8b8]
link admin to UC12 - Specify a new type of vaccine--><path d="M63.2965,677.695 C90.4114,677.695 132.557,677.695 171.7277,677.695 " fill="none" id="admin-to-UC12 - Specify a new type of vaccine" style="stroke:#A80036;stroke-width:0.71;"/><polygon fill="#A80036" points="175.512,677.695,169.122,674.855,171.962,677.695,169.122,680.535,175.512,677.695" style="stroke:#A80036;stroke-width:0.71;"/><!--MD5=[26dcb665feb1f6cf92bc4ef208ad03f9]
link admin to UC13 - Specify a new vaccine and its administration process--><path d="M63.4314,692.7328 C76.1972,698.9595 91.5119,705.9175 105.79,711.065 C125.6771,718.2289 147.3179,724.7254 168.1635,730.3699 " fill="none" id="admin-to-UC13 - Specify a new vaccine and its administration process" style="stroke:#A80036;stroke-width:0.71;"/><polygon fill="#A80036" points="171.7703,731.3355,166.3383,726.9319,168.3424,730.4126,164.8617,732.4166,171.7703,731.3355" style="stroke:#A80036;stroke-width:0.71;"/><!--MD5=[e7b0f5bc7fc1e7fefa0899f0014cbde9]
link admin to UC14 - Load Users from a CSV File--><path d="M43.878,706.5991 C54.4641,734.2536 74.3867,774.9295 105.79,796.975 C126.5504,811.5513 152.2666,819.8938 177.1308,824.5656 " fill="none" id="admin-to-UC14 - Load Users from a CSV File" style="stroke:#A80036;stroke-width:0.71;"/><polygon fill="#A80036" points="180.7944,825.233,175.0075,821.3075,177.3004,824.6051,174.0028,826.898,180.7944,825.233" style="stroke:#A80036;stroke-width:0.71;"/><!--MD5=[0bac082d8160e9a143ce607e5cacdbfd]
reverse link Use to recep--><path d="M367.5883,520.2241 C390.9686,515.1334 415.0234,507.1104 435.23,494.515 C458.8588,479.7896 477.6241,454.0095 489.687,433.8952 " fill="none" id="Use-backto-recep" style="stroke:#A80036;stroke-width:0.71;"/><polygon fill="#A80036" points="363.8466,521.0122,370.6846,522.4749,367.3205,520.2809,369.5145,516.9167,363.8466,521.0122" style="stroke:#A80036;stroke-width:0.71;"/><!--MD5=[b57c342adf893b7dc849b50b20797d4b]
link recep to UC03 - Register the arrival of a SNS user to take the vaccine--><path d="M521.566,376.2716 C533.6644,356.3632 552.3942,330.931 575.81,316.305 C597.4579,302.7866 622.6132,293.3649 647.7472,286.8187 " fill="none" id="recep-to-UC03 - Register the arrival of a SNS user to take the vaccine" style="stroke:#A80036;stroke-width:0.71;"/><polygon fill="#A80036" points="651.4534,285.8744,644.5613,284.6929,648.0124,286.7473,645.958,290.1985,651.4534,285.8744" style="stroke:#A80036;stroke-width:0.71;"/><!--MD5=[ead77acc1c1ea3324887c8af36717cfb]
link recep to UC04 - Acknowledges the system that the user is ready to take the vaccine--><path d="M533.3946,401.1358 C557.4636,397.6639 594.6321,392.2963 632.9437,386.7654 " fill="none" id="recep-to-UC04 - Acknowledges the system that the user is ready to take the vaccine" style="stroke:#A80036;stroke-width:0.71;"/><polygon fill="#A80036" points="636.657,386.2329,629.9265,384.336,633.1435,386.7406,630.7389,389.9576,636.657,386.2329" style="stroke:#A80036;stroke-width:0.71;"/><!--MD5=[f504cd8ad84916e038ebf56dc4bde1e8]
link recep to Schedule--><path d="M533.3236,408.9316 C546.1959,410.7776 561.7946,412.9999 575.81,414.995 C622.5635,421.6406 675.2952,429.0956 715.6871,434.7969 " fill="none" id="recep-to-Schedule" style="stroke:#A80036;stroke-width:0.71;"/><polygon fill="#A80036" points="719.3081,435.3081,713.3795,431.6002,715.7932,434.8103,712.583,437.224,719.3081,435.3081" style="stroke:#A80036;stroke-width:0.71;"/><!--MD5=[3cb32049c6c0f89923d6c9140bdd3298]
reverse link Use to SNSUser--><path d="M373.6943,528.595 C415.2009,528.595 459.1499,528.595 484.1632,528.595 " fill="none" id="Use-backto-SNSUser" style="stroke:#A80036;stroke-width:0.71;"/><polygon fill="#A80036" points="369.9455,528.595,376.3355,531.435,373.4955,528.595,376.3355,525.755,369.9455,528.595" style="stroke:#A80036;stroke-width:0.71;"/><!--MD5=[1073ccc13c21b6bdbf5afe44f6e76236]
link SNSUser to Schedule--><path d="M527.104,507.0394 C539.9905,495.0901 557.5133,481.0889 575.81,473.215 C616.209,455.8342 664.7872,448.4005 704.6111,445.383 " fill="none" id="SNSUser-to-Schedule" style="stroke:#A80036;stroke-width:0.71;"/><polygon fill="#A80036" points="708.1895,445.1274,701.6129,442.7512,704.6486,445.381,702.0188,448.4167,708.1895,445.1274" style="stroke:#A80036;stroke-width:0.71;"/><!--MD5=[05745f6b5417625e8c90bbad3cc149c9]
link SNSUser to UC02 - Authorize the DGS to send a SMS message with information about the scheduled--><path d="M526.9336,528.595 C538.4924,528.595 554.1621,528.595 572.0967,528.595 " fill="none" id="SNSUser-to-UC02 - Authorize the DGS to send a SMS message with information about the scheduled" style="stroke:#A80036;stroke-width:0.71;"/><polygon fill="#A80036" points="575.7106,528.595,569.3206,525.755,572.1606,528.595,569.3206,531.435,575.7106,528.595" style="stroke:#A80036;stroke-width:0.71;"/><!--MD5=[a08de6ff8434c944b0bdca49f3630882]
link SNSUser to UC09 - Can request the issuance of the EU COVID Digital Certificate--><path d="M527.0614,549.3199 C540.0615,561.1343 557.7192,575.2775 575.81,583.975 C598.3312,594.7954 623.451,603.1805 648.1874,609.6486 " fill="none" id="SNSUser-to-UC09 - Can request the issuance of the EU COVID Digital Certificate" style="stroke:#A80036;stroke-width:0.71;"/><polygon fill="#A80036" points="651.8368,610.5929,646.3685,606.2345,648.4013,609.6985,644.9374,611.7313,651.8368,610.5929" style="stroke:#A80036;stroke-width:0.71;"/><!--MD5=[99bf6e57307dcbcb4893322d8f89255f]
reverse link Use to Coo--><path d="M371.8128,533.6502 C394.7245,538.961 417.5084,548.0845 435.23,563.385 C482.5231,604.2171 497.71,680.2936 502.5593,721.8712 " fill="none" id="Use-backto-Coo" style="stroke:#A80036;stroke-width:0.71;"/><polygon fill="#A80036" points="368.1421,532.8266,373.7523,537.0008,371.6054,533.6064,374.9999,531.4595,368.1421,532.8266" style="stroke:#A80036;stroke-width:0.71;"/><!--MD5=[e2e47643006bb65009af2a67458a2ecf]
link Coo to UC15 - Check and export vaccination statistics--><path d="M532.145,747.417 C566.0262,742.9653 627.3347,734.9068 680.7054,727.892 " fill="none" id="Coo-to-UC15 - Check and export vaccination statistics" style="stroke:#A80036;stroke-width:0.71;"/><polygon fill="#A80036" points="684.5323,727.3879,677.8301,725.3933,681.0118,727.8445,678.5606,731.0261,684.5323,727.3879" style="stroke:#A80036;stroke-width:0.71;"/><!--MD5=[c9a66450c0c3d01c216caa2e3f446c4a]
link Coo to UC16 - Analyze the performance of a center--><path d="M532.145,754.2969 C567.077,758.9829 631.1616,767.5668 685.647,774.8727 " fill="none" id="Coo-to-UC16 - Analyze the performance of a center" style="stroke:#A80036;stroke-width:0.71;"/><polygon fill="#A80036" points="689.2183,775.3484,683.2569,771.6933,685.6991,774.8819,682.5105,777.324,689.2183,775.3484" style="stroke:#A80036;stroke-width:0.71;"/><!--MD5=[97bdaa5c871cfe60d41446ff4bbd9f0b]
link Coo to UC17 - Import data from a legacy system--><path d="M526.3017,779.7007 C538.7267,795.3136 556.0649,813.4967 575.81,823.955 C606.7802,840.3631 643.7428,849.231 677.7447,853.9241 " fill="none" id="Coo-to-UC17 - Import data from a legacy system" style="stroke:#A80036;stroke-width:0.71;"/><polygon fill="#A80036" points="681.4509,854.4211,675.4895,850.766,677.9317,853.9546,674.7431,856.3967,681.4509,854.4211" style="stroke:#A80036;stroke-width:0.71;"/><!--MD5=[a655df7bc049bb419b740eb4712b84bc]
link Time to UC06 - Generate daily report of total vaccinated people--><path d="M62.5936,37.985 C80.8122,37.985 106.0172,37.985 132.5996,37.985 " fill="none" id="Time-to-UC06 - Generate daily report of total vaccinated people" style="stroke:#A80036;stroke-width:0.71;"/><polygon fill="#A80036" points="136.1851,37.985,129.7951,35.145,132.6351,37.985,129.7951,40.825,136.1851,37.985" style="stroke:#A80036;stroke-width:0.71;"/><!--MD5=[f8f747c5e06601add2e5062ac1b520c4]
@startuml
skinparam actorStyle awesome
left to right direction
:Nurse: as n
:Administrator: as admin
:Receptionist: as recep
:SNS User: as SNSUser
:Coordinator: as Coo
"<<automatic>> \n     Timer" as Time

"UC00 - Application to be operated daily" as (Use)
"UC01 - Schedule a vaccine" as (Schedule)
n - -> (Use)
n - -> (UC07 - Record adverse reactions of an SNS User.)
n - -> (UC08 - Administration of a vaccine to an SNS User.)
n - -> (UC10 - Can issue and deliver on site a vaccination certificate.)
n - -> (UC05 - Checks the user information in the system.)
n - -> (UC06 - After giving the vaccine to the user, registers the vaccine type)

admin - -> (Use)
admin - -> (UC11 - Configuring and managing the core information)
admin - -> (UC12 - Specify a new type of vaccine)
admin - -> (UC13 - Specify a new vaccine and its administration process)
admin - -> (UC14 - Load Users from a CSV File)

recep -up-> (Use)
recep -down-> (UC03 - Register the arrival of a SNS user to take the vaccine)
recep -down-> (UC04 - Acknowledges the system that the user is ready to take the vaccine)
recep -down-> (Schedule)

SNSUser -up-> (Use)
SNSUser -down-> (Schedule)
SNSUser -down-> (UC02 - Authorize the DGS to send a SMS message with information about the scheduled)
SNSUser -down-> (UC09 - Can request the issuance of the EU COVID Digital Certificate)

Coo -up-> (Use)
Coo -down-> (UC15 - Check and export vaccination statistics)
Coo -down-> (UC16 - Analyze the performance of a center)
Coo -down-> (UC17 - Import data from a legacy system)

Time - -> (UC06 - Generate daily report of total vaccinated people)

@enduml

PlantUML version 1.2021.11(Sat Oct 02 14:26:11 BST 2021)
(GPL source distribution)
Java Runtime: OpenJDK Runtime Environment
JVM: OpenJDK 64-Bit Server VM
Default Encoding: Cp1252
Language: en
Country: US
--></g></svg>