@startuml
autonumber
'hide footbox
actor "Nurse" as nurse

participant ":ConsultTheListOfSNSusersUI" as UI
participant ":ConsultTheListOfSNSusersController" as CTRL
participant ":Company" as CMP
participant "App"
participant "store: WaitingRoomStore" as store

activate nurse
nurse -> UI : Asks for the list of SNS users that are present in the waiting room
activate UI

UI -> CTRL : getTheListOfSNSusers()
activate CTRL

CTRL -> CMP : getWaitingRoomStore()
activate CMP
deactivate CMP

CTRL -> store : getWaitingRoomList()
activate store

CTRL -> "App" : cmp = getCompany()
activate "App"
deactivate application

CTRL -> "App" :getTheListOfSNSusers()
deactivate "App"

deactivate CTRL

deactivate store


UI ->UI : ShowList(List List, String header)
activate UI
deactivate UI


UI --> nurse : Shows the requested list

@enduml