@startuml
autonumber
actor Receptionist as OE

activate OE
OE -> "System" : asks to register the arrival of a SNS user
activate "System"
"System" --> OE : request data(name,password,email)
deactivate "System"

OE -> "System" : types request data
activate "System"
"System" --> OE : request a confirmation
deactivate "System"

OE -> "System" : confirms data
activate "System"
"System" --> OE: Add the SNS user to waiting room
deactivate "System"



@enduml