@startuml
autonumber
'hide footbox
actor "Receptionist" as RP

participant ":CreateSNSUserUI" as UI
participant ":RegisterSNSUserController" as CTRL
participant "cmp\n:Company" as CMP
participant "SNSUserStore" as Store
participant "SNS user\n:SNSUser" as User
participant "PasswordGenerator" as Pass
participant "EmailSender" as EmailSender
participant "AuthFacade" as Auth
activate RP
RP -> UI : asks to create a new user
activate UI
UI -> RP : requests data (name, phone number, email, address, \n postal code, date of birth, Receive SMS Notifications)
deactivate UI

RP -> UI : types requested data
activate UI


UI -> CTRL : createSNSUser(name,phoneNumber,email,address,\n postalCode,dateBirth,SMSNotifications)
activate CTRL

CTRL -> CMP: store = getClientStore()
activate CMP
deactivate CMP

CTRL -> Store: user=createSNSUser(name,phoneNumber,email,address,\n postalCode,dateBirth,SMSNotifications)
activate Store

Store --> User**: create(name,phoneNumber,email,address,\n postalCode,dateBirth,SMSNotifications)
CTRL -> Store: validateSNSUser(SNSUser)


Store -> User: email = getEmail()
activate Auth
Store -> Auth: checkSNSUser = existSNSUser(email)

Store -> Store: checkSNSUser(SNSUser)

deactivate Auth

UI --> RP: shows all data and requests confirmation
deactivate Store
deactivate CMP
deactivate CTRL
deactivate UI

RP -> UI : confirms the data
activate UI
UI -> CTRL : saveSNSUser()
activate CTRL

CTRL -> Store : saveSNSUser(SNSUser)
activate Store

Store -> Store: validateSNSUser(SNSUser)
activate User
Store -> User: email = getEmail()
Store -> User: name = getName()
activate Pass
Store -> Pass: key = generatePassword()
deactivate Pass
deactivate User
activate Auth
Store -> Auth: addRole = addUserRole(name, email, password, "SNSUser")
Store -> Store: addSNSUser(SNSUser)
activate EmailSender
Store -> EmailSender: sendEmail(SNSUser, key)
deactivate EmailSender
deactivate Auth

UI --> RP : informs operation success
deactivate CMP
deactivate CTRL
deactivate UI

deactivate RP

@enduml