@startuml

object Company {
    -designation
}

object Vaccine {
    -code
    -name
    -brand
}

object GroupAge{

}

object Dosage{

}

object Employee{
    -id
    -password
    -salary
    -workFunction
}

object VaccineType{
    -code
    -designation
    -duration
}

object VaccineSchedule{
    -dateTime
    -vaccinationCenterName
    -SNSUserNumber
}

object SNSUser{
    -name
    -birthDate
    -email
    -phoneNumber
    -password
    -UserNumber
}

object AdverseReactions{
}

object VaccinationCenter{
    -name
    -address
    -phoneNumber
    -email
    -faxNumber
    -websiteAddress
    -slotDuration
    -maxSlotVaccines
}

object HealthCareCenter{

}

object CommunityCareCenter{

}

object WorkingHours{
    -openingHours
    -closingHHours
}

object LegacyDataReader{
    -legacyFile
}

object CenterCoordinator{

}

object Administrator{

}

object Nurse{

}

object Receptionist{

}

object CSVReader{
    -csvFile
    -header
}

object VaccineAdministration{
    -snsUserNumber
    -vaccineType
    -vaccineName
    -dose
    -lotNumber
    -dateOfAdministration
    -vaccinationCenterName
}

object VaccineCertification{

}

object RecoveryRoom{
    -timeToRecover
}

object Message{
    -messageType
}

object Email{
    -emailUSer
}

object SMS{
    -phoneNumber
}

object UserCheckIn{
    -userSNSNumber
    -scheduledTime
}

object LeavingTime{
}

Company"1" -down- "1" Vaccine : applies >
Company"1" -right- "*" Employee : has >
Company"1" -up- "*" SNSUser : manages >
Company "1" -up- "*" AdverseReactions : manages >
Company "1" -left- "*" VaccinationCenter: manages >
CommunityCareCenter "1" -- "1" VaccinationCenter : is a type of >
HealthCareCenter "1" -- "1" VaccinationCenter : is a type of >
WorkingHours "*" -- "1" VaccinationCenter : is part of >
SNSUser "1" -- "*" AdverseReactions : has >
Vaccine "1" -- "*" Dosage : < is part of
Vaccine "1" -- "*" GroupAge : < is part of
VaccineType "1" -up- "*" Vaccine : has <
VaccineSchedule "*" -up- "1" Vaccine : < for taking
CenterCoordinator "*" -up- "*" Employee : is a type of >
Administrator "*" -up- "*" Employee : is a type of >
Nurse "*" -up- "*" Employee : is a type of >
Receptionist "*" -up- "*" Employee : is a type of >
CenterCoordinator "*" -- "1" LegacyDataReader : uses >
Administrator "1" -- "*" VaccinationCenter : manages >
Administrator "1" -- "*" SNSUser : registers >
Administrator "1" -- "1" CSVReader : uses >
CSVReader "1" -- "*" SNSUser : loads >
Nurse "1" -- "*" VaccineAdministration : manages >
VaccineAdministration "*" -- "1" VaccinationCenter : is part of >
VaccineAdministration "1" -- "1" SNSUser : is administered on >
AdverseReactions "*" -- "1" VaccineAdministration : is part of >
Nurse "1" -- "*" VaccineCertification : delivers >
SNSUser "1" -- "*" VaccineCertification : requests >
Nurse "1" -- "1" RecoveryRoom : is responsible for >
SNSUser "*" -- "1" RecoveryRoom : waits on >
LeavingTime "1" -- "1" SNSUser : belongs to >
Message "*" -- "1" RecoveryRoom : is part of >
Email "1" -- "1" Message : is part of >
SMS "1" -- "1" Message : is part of >
SMS "1" -- "1" VaccineSchedule: is part of >
VaccinationCenter "1" -- "*" VaccineSchedule : has >
LegacyDataReader "1" -- "*" VaccineSchedule : has >
LegacyDataReader "1" -- "*" LeavingTime : has >
Receptionist "1" -- "*" VaccineSchedule : registers >
Receptionist "1" -- "*" UserCheckIn : registers >
UserCheckIn "*" -- "1" LegacyDataReader : is part of >
SNSUser "1" -- "1" UserCheckIn : does >
SNSUser "1" -- "*" VaccineSchedule : requests >
VaccinationCenter "1" -- "1" CenterCoordinator : has >
@enduml
